colrow: Handling SimU, CR, and LU data
…
## `summarise()` has grouped output by 'YEAR'. You can override using the
## `.groups` argument.

result

## # A tibble: 39 x 5
## # Groups:   YEAR [6]
##     YEAR USE      VALUE  Year Use           
##    <dbl> <chr>    <dbl> <dbl> <chr>         
##  1  2000 CrpLnd  39983.  2000 Crop Land     
##  2  2000 GrsLnd 214941.  2000 Grass Land    
##  3  2000 MngFor  41955.  2000 Managed Forest
##  4  2000 NatLnd  73001.  2000 Natural Land  
##  5  2000 PltFor   6005.  2000 Planted Forest
##  6  2000 PriFor 208736.  2000 Primary Forest
##  7  2010 CrpLnd  60109.  2010 Crop Land     
##  8  2010 GrsLnd 240326.  2010 Grass Land    
##  9  2010 MngFor  45416.  2010 Managed Forest
## 10  2010 NatLnd  54057.  2010 Natural Land  
## # ... with 29 more rows
…
